# MagicaVoxel @ ephtracy

# material
mtllib tree2.mtl
usemtl palette

# normals
vn -1 0 0
vn 1 0 0
vn 0 0 1
vn 0 0 -1
vn 0 -1 0
vn 0 1 0

# texcoords
vt 0.537109 0.5
vt 0.900391 0.5
vt 0.904297 0.5

# verts
v -12 16 12
v -12 16 -12
v -12 20 7
v -12 20 6
v -12 20 2
v -12 20 1
v -12 21 7
v -12 21 6
v -12 22 2
v -12 22 1
v -12 23 -5
v -12 23 -6
v -12 24 -5
v -12 24 -6
v -12 25 -7
v -12 25 -8
v -12 27 3
v -12 27 2
v -12 27 -7
v -12 27 -8
v -12 27 -9
v -12 28 3
v -12 28 2
v -12 28 -8
v -12 28 -9
v -12 33 -5
v -12 33 -6
v -12 34 11
v -12 34 10
v -12 34 -5
v -12 34 -6
v -12 35 11
v -12 35 10
v -12 38 -1
v -12 38 -2
v -12 39 -2
v -12 39 -3
v -12 40 -1
v -12 40 -3
v -12 41 -0
v -12 41 -1
v -12 42 -0
v -12 42 -1
v -12 50 12
v -12 50 -12
v -3 0 3
v -3 0 -3
v -3 16 3
v -3 16 -3
v 3 0 3
v 3 0 -3
v 3 16 3
v 3 16 -3
v 12 16 12
v 12 16 -11
v 12 16 -12
v 12 17 -11
v 12 17 -12
v 12 18 -2
v 12 18 -3
v 12 19 -2
v 12 19 -3
v 12 23 6
v 12 23 5
v 12 24 6
v 12 24 5
v 12 24 4
v 12 25 -7
v 12 25 -8
v 12 26 5
v 12 26 4
v 12 26 -7
v 12 26 -8
v 12 27 8
v 12 27 7
v 12 28 8
v 12 28 7
v 12 31 -3
v 12 31 -4
v 12 33 -3
v 12 33 -4
v 12 37 4
v 12 37 3
v 12 38 4
v 12 38 3
v 12 40 9
v 12 40 8
v 12 40 -6
v 12 40 -8
v 12 41 8
v 12 41 6
v 12 42 9
v 12 42 6
v 12 42 -6
v 12 42 -8
v 12 44 3
v 12 44 2
v 12 45 3
v 12 45 2
v 12 50 12
v 12 50 -12
v -12 16 12
v -12 50 12
v -8 18 12
v -8 19 12
v -8 30 12
v -8 31 12
v -7 31 12
v -7 32 12
v -7 40 12
v -7 42 12
v -6 18 12
v -6 19 12
v -6 30 12
v -6 32 12
v -6 40 12
v -6 42 12
v -6 44 12
v -6 45 12
v -5 44 12
v -5 45 12
v -4 17 12
v -4 18 12
v -3 17 12
v -3 18 12
v -2 26 12
v -2 27 12
v -1 26 12
v -1 27 12
v 3 34 12
v 3 35 12
v 4 34 12
v 4 35 12
v 4 39 12
v 4 40 12
v 5 39 12
v 5 40 12
v 6 39 12
v 6 40 12
v 7 38 12
v 7 39 12
v 7 40 12
v 8 26 12
v 8 27 12
v 8 38 12
v 8 39 12
v 9 18 12
v 9 19 12
v 9 25 12
v 9 26 12
v 9 27 12
v 9 28 12
v 10 18 12
v 10 19 12
v 10 25 12
v 10 26 12
v 10 27 12
v 10 28 12
v 12 16 12
v 12 50 12
v -3 0 3
v -3 16 3
v 3 0 3
v 3 16 3
v -3 0 -3
v -3 16 -3
v 3 0 -3
v 3 16 -3
v -12 16 -12
v -12 50 -12
v -10 43 -12
v -10 44 -12
v -9 22 -12
v -9 23 -12
v -9 43 -12
v -9 44 -12
v -8 22 -12
v -8 23 -12
v -8 24 -12
v -8 25 -12
v -7 24 -12
v -7 25 -12
v -7 34 -12
v -7 36 -12
v -6 35 -12
v -6 36 -12
v -5 16 -12
v -5 17 -12
v -5 34 -12
v -5 35 -12
v -4 16 -12
v -4 17 -12
v -3 22 -12
v -3 23 -12
v -1 22 -12
v -1 23 -12
v -1 40 -12
v -1 41 -12
v 0 39 -12
v 0 40 -12
v 0 41 -12
v 0 42 -12
v 1 39 -12
v 1 40 -12
v 1 41 -12
v 1 42 -12
v 4 28 -12
v 4 29 -12
v 5 28 -12
v 5 29 -12
v 5 30 -12
v 7 19 -12
v 7 20 -12
v 7 29 -12
v 7 30 -12
v 8 19 -12
v 8 20 -12
v 8 39 -12
v 8 40 -12
v 9 39 -12
v 9 40 -12
v 11 16 -12
v 11 17 -12
v 12 16 -12
v 12 17 -12
v 12 50 -12
v -3 0 3
v 3 0 3
v -3 0 -3
v 3 0 -3
v -12 16 12
v 12 16 12
v 1 16 11
v 3 16 11
v 0 16 10
v 1 16 10
v 3 16 10
v 0 16 9
v 1 16 9
v -8 16 8
v -7 16 8
v -9 16 7
v -8 16 7
v -9 16 6
v -7 16 6
v 4 16 6
v 5 16 6
v 4 16 5
v 5 16 5
v -3 16 3
v 3 16 3
v 8 16 2
v 9 16 2
v -9 16 -0
v -8 16 -0
v 8 16 -0
v 9 16 -0
v -9 16 -1
v -8 16 -1
v -3 16 -3
v 3 16 -3
v -8 16 -6
v -7 16 -6
v -8 16 -7
v -7 16 -7
v -6 16 -7
v -7 16 -8
v -6 16 -8
v 6 16 -8
v 7 16 -8
v 6 16 -9
v 7 16 -9
v -5 16 -11
v -4 16 -11
v 11 16 -11
v 12 16 -11
v -12 16 -12
v -5 16 -12
v -4 16 -12
v 11 16 -12
v 12 16 -12
v -12 50 12
v 12 50 12
v -8 50 8
v -7 50 8
v 4 50 8
v 5 50 8
v -9 50 7
v -8 50 7
v -7 50 7
v 4 50 7
v 5 50 7
v -9 50 6
v -8 50 6
v -3 50 3
v -2 50 3
v -3 50 2
v -2 50 2
v -5 50 1
v -4 50 1
v -5 50 -0
v -4 50 -0
v 5 50 -0
v 7 50 -0
v 6 50 -1
v 7 50 -1
v 5 50 -2
v 6 50 -2
v -1 50 -4
v 0 50 -4
v -10 50 -6
v -8 50 -6
v -10 50 -7
v -8 50 -7
v -7 50 -7
v -6 50 -7
v -1 50 -7
v 0 50 -7
v 9 50 -7
v 10 50 -7
v -7 50 -8
v -6 50 -8
v 9 50 -8
v 10 50 -8
v -12 50 -12
v 12 50 -12

# faces
f 3/2/1 2/2/1 1/2/1
f 4/2/1 2/2/1 3/2/1
f 5/2/1 2/2/1 4/2/1
f 6/2/1 2/2/1 5/2/1
f 7/2/1 3/2/1 1/2/1
f 7/3/1 4/3/1 3/3/1
f 8/2/1 5/2/1 4/2/1
f 8/3/1 4/3/1 7/3/1
f 9/3/1 6/3/1 5/3/1
f 9/2/1 5/2/1 8/2/1
f 9/2/1 8/2/1 7/2/1
f 10/2/1 2/2/1 6/2/1
f 10/3/1 6/3/1 9/3/1
f 11/2/1 10/2/1 9/2/1
f 11/2/1 2/2/1 10/2/1
f 12/2/1 2/2/1 11/2/1
f 13/2/1 11/2/1 9/2/1
f 13/3/1 12/3/1 11/3/1
f 14/2/1 2/2/1 12/2/1
f 14/3/1 12/3/1 13/3/1
f 15/2/1 14/2/1 13/2/1
f 15/2/1 2/2/1 14/2/1
f 16/2/1 2/2/1 15/2/1
f 17/2/1 9/2/1 7/2/1
f 17/2/1 13/2/1 9/2/1
f 17/2/1 15/2/1 13/2/1
f 18/2/1 15/2/1 17/2/1
f 19/3/1 16/3/1 15/3/1
f 19/2/1 15/2/1 18/2/1
f 20/2/1 2/2/1 16/2/1
f 20/3/1 16/3/1 19/3/1
f 21/2/1 2/2/1 20/2/1
f 22/3/1 18/3/1 17/3/1
f 22/2/1 17/2/1 7/2/1
f 23/2/1 19/2/1 18/2/1
f 23/3/1 18/3/1 22/3/1
f 23/2/1 20/2/1 19/2/1
f 24/3/1 21/3/1 20/3/1
f 24/2/1 20/2/1 23/2/1
f 25/2/1 2/2/1 21/2/1
f 25/3/1 21/3/1 24/3/1
f 26/2/1 24/2/1 23/2/1
f 26/2/1 23/2/1 22/2/1
f 26/2/1 25/2/1 24/2/1
f 27/2/1 25/2/1 26/2/1
f 28/2/1 22/2/1 7/2/1
f 28/2/1 7/2/1 1/2/1
f 28/2/1 26/2/1 22/2/1
f 29/2/1 26/2/1 28/2/1
f 30/3/1 27/3/1 26/3/1
f 30/2/1 26/2/1 29/2/1
f 31/2/1 25/2/1 27/2/1
f 31/3/1 27/3/1 30/3/1
f 32/3/1 29/3/1 28/3/1
f 32/2/1 28/2/1 1/2/1
f 33/2/1 30/2/1 29/2/1
f 33/3/1 29/3/1 32/3/1
f 33/2/1 31/2/1 30/2/1
f 34/2/1 33/2/1 32/2/1
f 34/2/1 31/2/1 33/2/1
f 35/2/1 31/2/1 34/2/1
f 36/3/1 35/3/1 34/3/1
f 36/2/1 31/2/1 35/2/1
f 37/2/1 31/2/1 36/2/1
f 38/2/1 34/2/1 32/2/1
f 38/3/1 36/3/1 34/3/1
f 38/3/1 37/3/1 36/3/1
f 39/2/1 31/2/1 37/2/1
f 39/3/1 37/3/1 38/3/1
f 40/2/1 38/2/1 32/2/1
f 40/2/1 39/2/1 38/2/1
f 41/2/1 39/2/1 40/2/1
f 42/2/1 40/2/1 32/2/1
f 42/3/1 41/3/1 40/3/1
f 43/2/1 39/2/1 41/2/1
f 43/3/1 41/3/1 42/3/1
f 44/2/1 32/2/1 1/2/1
f 44/2/1 42/2/1 32/2/1
f 44/2/1 43/2/1 42/2/1
f 45/2/1 39/2/1 43/2/1
f 45/2/1 43/2/1 44/2/1
f 45/2/1 25/2/1 31/2/1
f 45/2/1 31/2/1 39/2/1
f 45/2/1 2/2/1 25/2/1
f 48/1/1 47/1/1 46/1/1
f 49/1/1 47/1/1 48/1/1
f 50/1/2 51/1/2 52/1/2
f 52/1/2 51/1/2 53/1/2
f 54/2/2 55/2/2 57/2/2
f 55/3/2 56/3/2 57/3/2
f 57/3/2 56/3/2 58/3/2
f 54/2/2 57/2/2 59/2/2
f 57/2/2 58/2/2 59/2/2
f 59/2/2 58/2/2 60/2/2
f 54/2/2 59/2/2 61/2/2
f 59/3/2 60/3/2 61/3/2
f 60/2/2 58/2/2 62/2/2
f 61/3/2 60/3/2 62/3/2
f 54/2/2 61/2/2 63/2/2
f 61/2/2 62/2/2 63/2/2
f 63/2/2 62/2/2 64/2/2
f 54/2/2 63/2/2 65/2/2
f 63/3/2 64/3/2 65/3/2
f 64/2/2 62/2/2 66/2/2
f 65/3/2 64/3/2 66/3/2
f 66/2/2 62/2/2 67/2/2
f 62/2/2 58/2/2 68/2/2
f 67/2/2 62/2/2 68/2/2
f 68/2/2 58/2/2 69/2/2
f 66/3/2 67/3/2 70/3/2
f 65/2/2 66/2/2 70/2/2
f 67/2/2 68/2/2 71/2/2
f 70/3/2 67/3/2 71/3/2
f 68/3/2 69/3/2 72/3/2
f 71/2/2 68/2/2 72/2/2
f 69/2/2 58/2/2 73/2/2
f 72/3/2 69/3/2 73/3/2
f 71/2/2 72/2/2 74/2/2
f 54/2/2 65/2/2 74/2/2
f 72/2/2 73/2/2 74/2/2
f 65/2/2 70/2/2 74/2/2
f 70/2/2 71/2/2 74/2/2
f 74/2/2 73/2/2 75/2/2
f 54/2/2 74/2/2 76/2/2
f 74/3/2 75/3/2 76/3/2
f 75/2/2 73/2/2 77/2/2
f 76/3/2 75/3/2 77/3/2
f 76/2/2 77/2/2 78/2/2
f 77/2/2 73/2/2 78/2/2
f 78/2/2 73/2/2 79/2/2
f 76/2/2 78/2/2 80/2/2
f 78/3/2 79/3/2 80/3/2
f 79/2/2 73/2/2 81/2/2
f 80/3/2 79/3/2 81/3/2
f 76/2/2 80/2/2 82/2/2
f 80/2/2 81/2/2 82/2/2
f 82/2/2 81/2/2 83/2/2
f 76/2/2 82/2/2 84/2/2
f 82/3/2 83/3/2 84/3/2
f 83/2/2 81/2/2 85/2/2
f 84/3/2 83/3/2 85/3/2
f 54/2/2 76/2/2 86/2/2
f 76/2/2 84/2/2 86/2/2
f 84/2/2 85/2/2 86/2/2
f 86/2/2 85/2/2 87/2/2
f 85/2/2 81/2/2 88/2/2
f 87/2/2 85/2/2 88/2/2
f 81/2/2 73/2/2 88/2/2
f 73/2/2 58/2/2 89/2/2
f 88/2/2 73/2/2 89/2/2
f 87/2/2 88/2/2 90/2/2
f 86/3/2 87/3/2 90/3/2
f 90/2/2 88/2/2 91/2/2
f 54/2/2 86/2/2 92/2/2
f 86/3/2 90/3/2 92/3/2
f 90/3/2 91/3/2 92/3/2
f 91/2/2 88/2/2 93/2/2
f 92/3/2 91/3/2 93/3/2
f 88/3/2 89/3/2 94/3/2
f 93/2/2 88/2/2 94/2/2
f 89/2/2 58/2/2 95/2/2
f 94/3/2 89/3/2 95/3/2
f 93/2/2 94/2/2 96/2/2
f 92/2/2 93/2/2 96/2/2
f 94/2/2 95/2/2 96/2/2
f 96/2/2 95/2/2 97/2/2
f 92/2/2 96/2/2 98/2/2
f 96/3/2 97/3/2 98/3/2
f 97/2/2 95/2/2 99/2/2
f 98/3/2 97/3/2 99/3/2
f 54/2/2 92/2/2 100/2/2
f 92/2/2 98/2/2 100/2/2
f 98/2/2 99/2/2 100/2/2
f 95/2/2 58/2/2 101/2/2
f 100/2/2 99/2/2 101/2/2
f 99/2/2 95/2/2 101/2/2
f 104/2/3 103/2/3 102/2/3
f 105/2/3 103/2/3 104/2/3
f 106/2/3 103/2/3 105/2/3
f 107/2/3 103/2/3 106/2/3
f 108/3/3 107/3/3 106/3/3
f 108/2/3 103/2/3 107/2/3
f 109/2/3 103/2/3 108/2/3
f 110/2/3 103/2/3 109/2/3
f 111/2/3 103/2/3 110/2/3
f 112/2/3 104/2/3 102/2/3
f 112/3/3 105/3/3 104/3/3
f 113/2/3 106/2/3 105/2/3
f 113/3/3 105/3/3 112/3/3
f 114/3/3 108/3/3 106/3/3
f 114/2/3 106/2/3 113/2/3
f 114/3/3 109/3/3 108/3/3
f 115/2/3 110/2/3 109/2/3
f 115/3/3 109/3/3 114/3/3
f 116/3/3 111/3/3 110/3/3
f 116/2/3 110/2/3 115/2/3
f 117/2/3 103/2/3 111/2/3
f 117/3/3 111/3/3 116/3/3
f 118/2/3 103/2/3 117/2/3
f 119/2/3 103/2/3 118/2/3
f 120/2/3 116/2/3 115/2/3
f 120/2/3 115/2/3 114/2/3
f 120/3/3 119/3/3 118/3/3
f 120/2/3 118/2/3 117/2/3
f 120/2/3 117/2/3 116/2/3
f 120/2/3 114/2/3 113/2/3
f 120/2/3 113/2/3 112/2/3
f 121/2/3 103/2/3 119/2/3
f 121/3/3 119/3/3 120/3/3
f 122/2/3 120/2/3 112/2/3
f 122/2/3 112/2/3 102/2/3
f 122/2/3 121/2/3 120/2/3
f 123/2/3 121/2/3 122/2/3
f 124/2/3 122/2/3 102/2/3
f 124/3/3 123/3/3 122/3/3
f 125/2/3 121/2/3 123/2/3
f 125/3/3 123/3/3 124/3/3
f 126/2/3 125/2/3 124/2/3
f 126/2/3 121/2/3 125/2/3
f 127/2/3 121/2/3 126/2/3
f 128/2/3 126/2/3 124/2/3
f 128/3/3 127/3/3 126/3/3
f 129/2/3 121/2/3 127/2/3
f 129/3/3 127/3/3 128/3/3
f 130/2/3 129/2/3 128/2/3
f 130/2/3 121/2/3 129/2/3
f 131/2/3 121/2/3 130/2/3
f 132/2/3 130/2/3 128/2/3
f 132/3/3 131/3/3 130/3/3
f 133/2/3 121/2/3 131/2/3
f 133/3/3 131/3/3 132/3/3
f 134/2/3 121/2/3 133/2/3
f 135/2/3 121/2/3 134/2/3
f 136/2/3 133/2/3 132/2/3
f 136/2/3 134/2/3 133/2/3
f 136/3/3 135/3/3 134/3/3
f 137/2/3 121/2/3 135/2/3
f 137/3/3 135/3/3 136/3/3
f 138/2/3 136/2/3 132/2/3
f 138/2/3 137/2/3 136/2/3
f 139/2/3 121/2/3 137/2/3
f 139/2/3 137/2/3 138/2/3
f 140/2/3 138/2/3 132/2/3
f 141/3/3 139/3/3 138/3/3
f 141/2/3 138/2/3 140/2/3
f 142/2/3 121/2/3 139/2/3
f 142/3/3 139/3/3 141/3/3
f 143/2/3 128/2/3 124/2/3
f 143/2/3 132/2/3 128/2/3
f 143/2/3 140/2/3 132/2/3
f 144/2/3 140/2/3 143/2/3
f 145/3/3 141/3/3 140/3/3
f 145/2/3 140/2/3 144/2/3
f 146/2/3 142/2/3 141/2/3
f 146/3/3 141/3/3 145/3/3
f 147/2/3 143/2/3 124/2/3
f 148/2/3 143/2/3 147/2/3
f 149/2/3 143/2/3 148/2/3
f 150/3/3 144/3/3 143/3/3
f 150/2/3 143/2/3 149/2/3
f 151/2/3 145/2/3 144/2/3
f 151/3/3 144/3/3 150/3/3
f 151/2/3 146/2/3 145/2/3
f 152/2/3 146/2/3 151/2/3
f 153/3/3 148/3/3 147/3/3
f 153/2/3 147/2/3 124/2/3
f 154/2/3 149/2/3 148/2/3
f 154/3/3 148/3/3 153/3/3
f 155/3/3 150/3/3 149/3/3
f 155/2/3 149/2/3 154/2/3
f 156/2/3 151/2/3 150/2/3
f 156/3/3 150/3/3 155/3/3
f 157/3/3 152/3/3 151/3/3
f 157/2/3 151/2/3 156/2/3
f 158/2/3 146/2/3 152/2/3
f 158/3/3 152/3/3 157/3/3
f 159/2/3 124/2/3 102/2/3
f 159/2/3 154/2/3 153/2/3
f 159/2/3 158/2/3 157/2/3
f 159/2/3 155/2/3 154/2/3
f 159/2/3 156/2/3 155/2/3
f 159/2/3 157/2/3 156/2/3
f 159/2/3 153/2/3 124/2/3
f 160/2/3 103/2/3 121/2/3
f 160/2/3 158/2/3 159/2/3
f 160/2/3 146/2/3 158/2/3
f 160/2/3 142/2/3 146/2/3
f 160/2/3 121/2/3 142/2/3
f 163/1/3 162/1/3 161/1/3
f 164/1/3 162/1/3 163/1/3
f 165/1/4 166/1/4 167/1/4
f 167/1/4 166/1/4 168/1/4
f 169/2/4 170/2/4 171/2/4
f 171/2/4 170/2/4 172/2/4
f 169/2/4 171/2/4 173/2/4
f 173/2/4 171/2/4 174/2/4
f 171/3/4 172/3/4 175/3/4
f 174/2/4 171/2/4 175/2/4
f 172/2/4 170/2/4 176/2/4
f 175/3/4 172/3/4 176/3/4
f 173/3/4 174/3/4 177/3/4
f 169/2/4 173/2/4 177/2/4
f 174/2/4 175/2/4 178/2/4
f 177/3/4 174/3/4 178/3/4
f 175/2/4 176/2/4 178/2/4
f 178/2/4 176/2/4 179/2/4
f 179/2/4 176/2/4 180/2/4
f 177/2/4 178/2/4 181/2/4
f 178/2/4 179/2/4 181/2/4
f 179/3/4 180/3/4 181/3/4
f 180/2/4 176/2/4 182/2/4
f 181/3/4 180/3/4 182/3/4
f 182/2/4 176/2/4 183/2/4
f 183/2/4 176/2/4 184/2/4
f 183/3/4 184/3/4 185/3/4
f 184/2/4 176/2/4 186/2/4
f 185/3/4 184/3/4 186/3/4
f 169/2/4 177/2/4 187/2/4
f 177/2/4 181/2/4 187/2/4
f 181/2/4 182/2/4 187/2/4
f 182/2/4 183/2/4 187/2/4
f 187/2/4 183/2/4 188/2/4
f 183/3/4 185/3/4 189/3/4
f 188/2/4 183/2/4 189/2/4
f 185/2/4 186/2/4 190/2/4
f 189/3/4 185/3/4 190/3/4
f 187/3/4 188/3/4 191/3/4
f 188/2/4 189/2/4 192/2/4
f 191/3/4 188/3/4 192/3/4
f 189/2/4 190/2/4 192/2/4
f 191/2/4 192/2/4 193/2/4
f 192/2/4 190/2/4 193/2/4
f 193/2/4 190/2/4 194/2/4
f 191/2/4 193/2/4 195/2/4
f 193/3/4 194/3/4 195/3/4
f 194/2/4 190/2/4 196/2/4
f 195/3/4 194/3/4 196/3/4
f 186/2/4 176/2/4 197/2/4
f 196/2/4 190/2/4 197/2/4
f 190/2/4 186/2/4 197/2/4
f 197/2/4 176/2/4 198/2/4
f 195/2/4 196/2/4 199/2/4
f 196/2/4 197/2/4 199/2/4
f 197/3/4 198/3/4 200/3/4
f 199/2/4 197/2/4 200/2/4
f 198/2/4 176/2/4 201/2/4
f 200/3/4 198/3/4 201/3/4
f 201/2/4 176/2/4 202/2/4
f 199/3/4 200/3/4 203/3/4
f 195/2/4 199/2/4 203/2/4
f 200/2/4 201/2/4 204/2/4
f 203/3/4 200/3/4 204/3/4
f 201/3/4 202/3/4 205/3/4
f 204/2/4 201/2/4 205/2/4
f 202/2/4 176/2/4 206/2/4
f 205/3/4 202/3/4 206/3/4
f 204/2/4 205/2/4 207/2/4
f 203/2/4 204/2/4 207/2/4
f 205/2/4 206/2/4 207/2/4
f 195/2/4 203/2/4 207/2/4
f 207/2/4 206/2/4 208/2/4
f 195/2/4 207/2/4 209/2/4
f 207/3/4 208/3/4 209/3/4
f 208/2/4 206/2/4 210/2/4
f 209/3/4 208/3/4 210/3/4
f 210/2/4 206/2/4 211/2/4
f 191/2/4 195/2/4 212/2/4
f 195/2/4 209/2/4 212/2/4
f 209/2/4 210/2/4 212/2/4
f 212/2/4 210/2/4 213/2/4
f 210/3/4 211/3/4 214/3/4
f 213/2/4 210/2/4 214/2/4
f 211/2/4 206/2/4 215/2/4
f 214/3/4 211/3/4 215/3/4
f 212/3/4 213/3/4 216/3/4
f 191/2/4 212/2/4 216/2/4
f 213/2/4 214/2/4 217/2/4
f 216/3/4 213/3/4 217/3/4
f 214/2/4 215/2/4 217/2/4
f 215/2/4 206/2/4 218/2/4
f 217/2/4 215/2/4 218/2/4
f 218/2/4 206/2/4 219/2/4
f 216/2/4 217/2/4 220/2/4
f 217/2/4 218/2/4 220/2/4
f 218/3/4 219/3/4 220/3/4
f 219/2/4 206/2/4 221/2/4
f 220/3/4 219/3/4 221/3/4
f 191/2/4 216/2/4 222/2/4
f 216/2/4 220/2/4 222/2/4
f 220/2/4 221/2/4 222/2/4
f 222/2/4 221/2/4 223/2/4
f 222/3/4 223/3/4 224/3/4
f 223/2/4 221/2/4 225/2/4
f 224/3/4 223/3/4 225/3/4
f 206/2/4 176/2/4 226/2/4
f 225/2/4 221/2/4 226/2/4
f 176/2/4 170/2/4 226/2/4
f 221/2/4 206/2/4 226/2/4
f 229/1/5 228/1/5 227/1/5
f 230/1/5 228/1/5 229/1/5
f 233/2/5 232/2/5 231/2/5
f 234/2/5 232/2/5 233/2/5
f 235/2/5 233/2/5 231/2/5
f 236/3/5 234/3/5 233/3/5
f 236/2/5 233/2/5 235/2/5
f 237/2/5 232/2/5 234/2/5
f 237/3/5 234/3/5 236/3/5
f 238/3/5 236/3/5 235/3/5
f 238/2/5 235/2/5 231/2/5
f 239/2/5 237/2/5 236/2/5
f 239/3/5 236/3/5 238/3/5
f 240/2/5 238/2/5 231/2/5
f 240/2/5 239/2/5 238/2/5
f 241/2/5 239/2/5 240/2/5
f 242/2/5 240/2/5 231/2/5
f 243/3/5 241/3/5 240/3/5
f 243/2/5 240/2/5 242/2/5
f 244/2/5 242/2/5 231/2/5
f 244/3/5 243/3/5 242/3/5
f 245/2/5 239/2/5 241/2/5
f 245/3/5 243/3/5 244/3/5
f 245/3/5 241/3/5 243/3/5
f 246/2/5 232/2/5 237/2/5
f 246/2/5 239/2/5 245/2/5
f 246/2/5 237/2/5 239/2/5
f 247/2/5 232/2/5 246/2/5
f 248/2/5 245/2/5 244/2/5
f 248/2/5 246/2/5 245/2/5
f 248/3/5 247/3/5 246/3/5
f 249/2/5 232/2/5 247/2/5
f 249/3/5 247/3/5 248/3/5
f 250/2/5 248/2/5 244/2/5
f 250/2/5 249/2/5 248/2/5
f 251/2/5 249/2/5 250/2/5
f 252/2/5 232/2/5 249/2/5
f 252/2/5 249/2/5 251/2/5
f 253/2/5 232/2/5 252/2/5
f 254/2/5 250/2/5 244/2/5
f 254/2/5 244/2/5 231/2/5
f 255/2/5 250/2/5 254/2/5
f 256/3/5 253/3/5 252/3/5
f 256/2/5 252/2/5 251/2/5
f 257/2/5 232/2/5 253/2/5
f 257/3/5 253/3/5 256/3/5
f 258/3/5 255/3/5 254/3/5
f 258/2/5 254/2/5 231/2/5
f 259/2/5 250/2/5 255/2/5
f 259/3/5 255/3/5 258/3/5
f 260/2/5 259/2/5 258/2/5
f 260/2/5 250/2/5 259/2/5
f 261/2/5 256/2/5 251/2/5
f 261/2/5 257/2/5 256/2/5
f 262/2/5 260/2/5 258/2/5
f 262/2/5 261/2/5 260/2/5
f 263/2/5 261/2/5 262/2/5
f 264/2/5 262/2/5 258/2/5
f 264/3/5 263/3/5 262/3/5
f 265/2/5 261/2/5 263/2/5
f 265/3/5 263/3/5 264/3/5
f 266/2/5 261/2/5 265/2/5
f 267/2/5 265/2/5 264/2/5
f 267/3/5 266/3/5 265/3/5
f 268/2/5 261/2/5 266/2/5
f 268/3/5 266/3/5 267/3/5
f 269/2/5 257/2/5 261/2/5
f 269/2/5 261/2/5 268/2/5
f 270/2/5 257/2/5 269/2/5
f 271/2/5 268/2/5 267/2/5
f 271/2/5 269/2/5 268/2/5
f 271/3/5 270/3/5 269/3/5
f 272/2/5 257/2/5 270/2/5
f 272/3/5 270/3/5 271/3/5
f 273/2/5 271/2/5 267/2/5
f 273/2/5 272/2/5 271/2/5
f 274/2/5 272/2/5 273/2/5
f 275/2/5 257/2/5 272/2/5
f 275/2/5 272/2/5 274/2/5
f 275/2/5 232/2/5 257/2/5
f 276/2/5 232/2/5 275/2/5
f 277/2/5 258/2/5 231/2/5
f 277/2/5 273/2/5 267/2/5
f 277/2/5 264/2/5 258/2/5
f 277/2/5 267/2/5 264/2/5
f 278/3/5 274/3/5 273/3/5
f 278/2/5 273/2/5 277/2/5
f 279/2/5 275/2/5 274/2/5
f 279/3/5 274/3/5 278/3/5
f 280/3/5 276/3/5 275/3/5
f 280/2/5 275/2/5 279/2/5
f 281/3/5 276/3/5 280/3/5
f 282/2/6 283/2/6 284/2/6
f 284/2/6 283/2/6 285/2/6
f 285/2/6 283/2/6 286/2/6
f 286/2/6 283/2/6 287/2/6
f 282/2/6 284/2/6 288/2/6
f 284/3/6 285/3/6 289/3/6
f 288/2/6 284/2/6 289/2/6
f 285/2/6 286/2/6 290/2/6
f 289/3/6 285/3/6 290/3/6
f 286/3/6 287/3/6 291/3/6
f 290/2/6 286/2/6 291/2/6
f 287/2/6 283/2/6 292/2/6
f 291/3/6 287/3/6 292/3/6
f 282/2/6 288/2/6 293/2/6
f 288/3/6 289/3/6 293/3/6
f 290/2/6 291/2/6 294/2/6
f 293/3/6 289/3/6 294/3/6
f 291/2/6 292/2/6 294/2/6
f 289/2/6 290/2/6 294/2/6
f 293/2/6 294/2/6 295/2/6
f 294/2/6 292/2/6 295/2/6
f 295/2/6 292/2/6 296/2/6
f 293/2/6 295/2/6 297/2/6
f 295/3/6 296/3/6 297/3/6
f 296/2/6 292/2/6 298/2/6
f 297/3/6 296/3/6 298/3/6
f 293/2/6 297/2/6 299/2/6
f 297/2/6 298/2/6 299/2/6
f 299/2/6 298/2/6 300/2/6
f 293/2/6 299/2/6 301/2/6
f 299/3/6 300/3/6 301/3/6
f 300/2/6 298/2/6 302/2/6
f 301/3/6 300/3/6 302/3/6
f 292/2/6 283/2/6 303/2/6
f 302/2/6 298/2/6 303/2/6
f 298/2/6 292/2/6 303/2/6
f 303/2/6 283/2/6 304/2/6
f 303/3/6 304/3/6 305/3/6
f 304/2/6 283/2/6 306/2/6
f 305/3/6 304/3/6 306/3/6
f 301/2/6 302/2/6 307/2/6
f 302/2/6 303/2/6 307/2/6
f 303/3/6 305/3/6 307/3/6
f 305/2/6 306/2/6 308/2/6
f 307/3/6 305/3/6 308/3/6
f 301/2/6 307/2/6 309/2/6
f 307/2/6 308/2/6 309/2/6
f 309/2/6 308/2/6 310/2/6
f 282/2/6 293/2/6 311/2/6
f 293/2/6 301/2/6 311/2/6
f 301/2/6 309/2/6 311/2/6
f 311/2/6 309/2/6 312/2/6
f 282/2/6 311/2/6 313/2/6
f 311/3/6 312/3/6 313/3/6
f 312/2/6 309/2/6 314/2/6
f 313/3/6 312/3/6 314/3/6
f 314/2/6 309/2/6 315/2/6
f 315/2/6 309/2/6 316/2/6
f 309/3/6 310/3/6 317/3/6
f 316/2/6 309/2/6 317/2/6
f 310/2/6 308/2/6 318/2/6
f 317/3/6 310/3/6 318/3/6
f 306/2/6 283/2/6 319/2/6
f 318/2/6 308/2/6 319/2/6
f 308/2/6 306/2/6 319/2/6
f 319/2/6 283/2/6 320/2/6
f 315/3/6 316/3/6 321/3/6
f 314/2/6 315/2/6 321/2/6
f 313/2/6 314/2/6 321/2/6
f 316/2/6 317/2/6 322/2/6
f 321/3/6 316/3/6 322/3/6
f 317/2/6 318/2/6 322/2/6
f 318/2/6 319/2/6 322/2/6
f 319/3/6 320/3/6 323/3/6
f 322/2/6 319/2/6 323/2/6
f 320/2/6 283/2/6 324/2/6
f 323/3/6 320/3/6 324/3/6
f 313/2/6 321/2/6 325/2/6
f 282/2/6 313/2/6 325/2/6
f 323/2/6 324/2/6 325/2/6
f 321/2/6 322/2/6 325/2/6
f 322/2/6 323/2/6 325/2/6
f 324/2/6 283/2/6 326/2/6
f 325/2/6 324/2/6 326/2/6
